{
   "homeSlider": {
      "slides": [
         {
            "title": "Responsive Design",
            "subtitle": "We create awesome responsive Designs",
            "imageUrl": "img/bg-img/slide1.png"
         },
         {
            "title": "Web Development",
            "subtitle": "Fusion professionals recognize the value of solid information architecture design.",
            "imageUrl": "img/bg-img/slide2.png"
         },
         {
            "title": "SEO",
            "subtitle": "Position your business at the top of search engines",
            "imageUrl": "img/bg-img/slide3.png"
         }
      ]
   },

   "clientSection": {
      "clientTitle": "Clients",
      "clientSubtitle": "All our clients love our work",
      "clients": [
         {
            "imageUrl": "img/clients-img/1.png"
         },
         {
            "imageUrl": "img/clients-img/2.png"
         },
         {
            "imageUrl": "img/clients-img/3.png"
         },
         {
            "imageUrl": "img/clients-img/4.png"
         },
         {
            "imageUrl": "img/clients-img/5.png"
         }
      ]
   },

   "serviceSection": {
      "services": [
         {
            "title": "Web Development",
            "description": "With our years of web site production and design experience, we are able to deliver the ideal web design and development solutions to you."
         },
         {
            "title": "Mobile App Development",
            "description": "We design and develop mobile-friendly tools that allow you to tap into an increasingly accessible method for communicating to your audience."
         },
         {
            "title": "SEO Social Service",
            "description": "We believe one of the most important steps in developing an effective web site is optimizing content for maximum search engine visibility."
         },
         {
            "title": "Ecommerce Development",
            "description": "We create customized e-commerce website to promote your brand effectively while bringing success as well as online sales."
         },
         {
            "title": "CMS Development",
            "description": "At Fusion, we focus on the web content management system development that offers more customer experience."
         },
         {
            "title": "Web Designing",
            "description": "A Unique website with great design and functionality generates great business for the company."
         }
      ]
   },

   "hometestimonials": {
      "testiTitle": "What they say",
      "testiSubtitle": "Client's testimonials",
      "testimonials": [
         {
            "name": "Jim Morison",
            "description": "Fusion team members are very skilled in web development, and I recommend this team highly. They can help you to grow your business up high in very less time as they did for me . So happy to work with them.",
            "imageUrl": "img/bg-img/testi-1.jpg"
         },
         {
            "name": "Ronnie desouza",
            "description": "I Will definitely work with Fusion team again. Great communicators. Hard workers. Overall, great contractors.",
            "imageUrl": "img/bg-img/testi-2.jpg"
         },
         {
            "name": "Steven Gerrard",
            "description": "The project was designed, developed, tested and implemented within our timeframe & budget. The team training and documentation helped us to make maximum use of the system.",
            "imageUrl": "img/bg-img/testi-3.jpg"
         },
         {
            "name": "Michael Scofield",
            "description": "Great Team to work with, really attentive and react to request immediately. Excellent work and I'm really pleased with the results. Thanks Fusion.",
            "imageUrl": "img/bg-img/testi-4.jpg"
         },
         {
            "name": "William Griggs",
            "description": "Thanks for the great work, I'm very happy with the result. During the work process, they were very flexible and willing to try out various things according to my suggestions.",
            "imageUrl": "img/bg-img/testi-5.jpg"
         }
      ]
   },

   "homeStats": {
      "stats": [
         {
            "count": "3980",
            "title": "Total Projects"
         },
         {
            "count": "4320",
            "title": "Happy Clients"
         },
         {
            "count": "32",
            "title": "Team Members"
         },
         {
            "count": "35712",
            "title": "Hours Working"
         }
      ]
   }
}