{
   "portCategories": {
      "portfolioCats": [
         {
            "portfolioCat": "Graphic Design",
            "catSlug": "graphic-design"
         },
         {
            "portfolioCat": "Web Design",
            "catSlug": "web-design"
         }
      ]
   },

   "ourWork": {
      "portfolio": [
         {
            "title": "Product 1",
            "subtitle": "Brand Identity",
            "imageUrl": "../img/portfolio-img/1.jpg",
            "catSlug": "graphic-design"
         },
         {
            "title": "Product 2",
            "subtitle": "Brand Identity",
            "imageUrl": "../img/portfolio-img/2.jpg",
            "catSlug": "web-design"
         },
         {
            "title": "Product 3",
            "subtitle": "Brand Identity",
            "imageUrl": "../img/portfolio-img/3.jpg",
            "catSlug": "graphic-design"
         },
         {
            "title": "Product 4",
            "subtitle": "Brand Identity",
            "imageUrl": "../img/portfolio-img/4.jpg",
            "catSlug": "graphic-design"
         },
         {
            "title": "Product 5",
            "subtitle": "Brand Identity",
            "imageUrl": "../img/portfolio-img/5.jpg",
            "catSlug": "graphic-design"
         },
         {
            "title": "Product 6",
            "subtitle": "Brand Identity",
            "imageUrl": "../img/portfolio-img/6.jpg",
            "catSlug": "graphic-design"
         },
         {
            "title": "Product 7",
            "subtitle": "Brand Identity",
            "imageUrl": "../img/portfolio-img/7.jpg",
            "catSlug": "graphic-design"
         },
         {
            "title": "Product 8",
            "subtitle": "Brand Identity",
            "imageUrl": "../img/portfolio-img/8.jpg",
            "catSlug": "graphic-design"
         },
         {
            "title": "Product 9",
            "subtitle": "Brand Identity",
            "imageUrl": "../img/portfolio-img/9.jpg",
            "catSlug": "graphic-design"
         },
         {
            "title": "Product 10",
            "subtitle": "Brand Identity",
            "imageUrl": "../img/portfolio-img/10.jpg",
            "catSlug": "graphic-design"
         },
         {
            "title": "Product 11",
            "subtitle": "Brand Identity",
            "imageUrl": "../img/portfolio-img/11.jpg",
            "catSlug": "graphic-design"
         },
         {
            "title": "Product 12",
            "subtitle": "Brand Identity",
            "imageUrl": "../img/portfolio-img/12.jpg",
            "catSlug": "graphic-design"
         }
      ]
   }
}